Neiker
…
Joining with `by = join_by(Gene)`

Warning: Expected 2 pieces. Additional pieces discarded in 125 rows [1, 2, 3, 4, 5, 6,
7, 8, 9, 10, 11, 12, 13, 14, 15, 16, 17, 18, 19, 20, ...].

# A tibble: 125 × 9
   Gene       group1 group2 estimate    SE    df z.ratio  p.value    p.adj
   <chr>      <chr>  <chr>     <dbl> <dbl> <dbl>   <dbl>    <dbl>    <dbl>
 1 CAH0260259 ""     2023     -1.31  0.222   Inf   -5.89 1.18e- 8 4.28e- 8
 2 CAH0260259 ""     2023     -1.23  0.221   Inf   -5.56 8.18e- 8 2.69e- 7
 3 CCQ44981   ""     2023     -0.564 0.223   Inf   -2.54 3.02e- 2 4.27e- 2
 4 CCQ44981   ""     2023     -1.43  0.205   Inf   -6.98 9.05e-12 3.94e-11
 5 CCQ44981   ""     2023     -0.864 0.181   Inf   -4.77 5.38e- 6 1.45e- 5
 6 CDG35806   ""     2023     -1.20  0.156   Inf   -7.67 6.87e-14 3.42e-13
 7 CDG35806   ""     2023     -0.942 0.160   Inf   -5.88 1.23e- 8 4.38e- 8
 8 EEK71973   ""     2023     -0.714 0.178   Inf   -4.01 1.77e- 4 3.71e- 4
 9 EEK71973   ""     2023      0.466 0.168   Inf    2.77 1.53e- 2 2.30e- 2
10 EEK74285   ""     2023     -0.870 0.216   Inf   -4.04 1.60e- 4 3.39e- 4
# ℹ 115 more rows
…
