Neiker
…
test_table %>% 
  dplyr::select(Gene,LRT) %>% 
  unnest(LRT) %>% 
  drop_na() %>% 
  mutate(padj = p.adjust(p,method = "fdr")) %>% 
  filter(padj < 0.05) %>% 
  inner_join(labels, by= c("Gene"="template")) %>% 
  relocate(label)

# A tibble: 59 × 9
# Groups:   Gene [59]
   label Gene       Name          Model     df df_diff  Chi2        p     padj
   <chr> <chr>      <chr>         <chr>  <int>   <int> <dbl>    <dbl>    <dbl>
 1 sodB  CAH0260259 model_reduced gamlss     2      -4  35.9 3.09e- 7 3.09e- 7
 2 arsC  CCQ44981   model_reduced gamlss     2      -4  44.1 6.03e- 9 6.03e- 9
 3 arsC  CDG35806   model_reduced gamlss     2      -4  58.2 7.00e-12 7.00e-12
 4 copA  EEK71973   model_reduced gamlss     2      -4  25.4 4.19e- 5 4.19e- 5
 5 G2alt EEK74285   model_reduced gamlss     2      -4  23.3 1.09e- 4 1.09e- 4
 6 bltD  EEL06557   model_reduced gamlss     2      -4  24.9 5.23e- 5 5.23e- 5
 7 arsB  EEL98871   model_reduced gamlss     2      -4  35.6 3.50e- 7 3.50e- 7
 8 G2alt EEM02336   model_reduced gamlss     2      -4  25.8 3.48e- 5 3.48e- 5
 9 blt   EJR29024   model_reduced gamlss     2      -4  61.8 1.20e-12 1.20e-12
10 blt   EJS64113   model_reduced gamlss     2      -4  73.3 4.58e-15 4.58e-15
# ℹ 49 more rows
…
Joining with `by = join_by(Gene)`

Warning: Expected 2 pieces. Additional pieces discarded in 122 rows [1, 2, 3, 4, 5, 6,
7, 8, 9, 10, 11, 12, 13, 14, 15, 16, 17, 18, 19, 20, ...].

# A tibble: 122 × 9
   Gene       group1 group2 estimate    SE    df z.ratio  p.value    p.adj
   <chr>      <chr>  <chr>     <dbl> <dbl> <dbl>   <dbl>    <dbl>    <dbl>
 1 CAH0260259 ""     2023     -1.30  0.221   Inf   -5.88 1.25e- 8 4.71e- 8
 2 CAH0260259 ""     2023     -1.22  0.221   Inf   -5.55 8.67e- 8 2.94e- 7
 3 CCQ44981   ""     2023     -0.559 0.222   Inf   -2.52 3.15e- 2 4.57e- 2
 4 CCQ44981   ""     2023     -1.43  0.204   Inf   -7.00 7.44e-12 3.38e-11
 5 CCQ44981   ""     2023     -0.867 0.181   Inf   -4.80 4.76e- 6 1.32e- 5
 6 CDG35806   ""     2023     -1.17  0.153   Inf   -7.62 9.40e-14 4.76e-13
 7 CDG35806   ""     2023     -0.913 0.158   Inf   -5.80 2.03e- 8 7.34e- 8
 8 EEK71973   ""     2023     -0.694 0.175   Inf   -3.97 2.14e- 4 4.46e- 4
 9 EEK71973   ""     2023      0.469 0.166   Inf    2.82 1.31e- 2 2.04e- 2
10 EEK74285   ""     2023     -0.875 0.216   Inf   -4.05 1.50e- 4 3.42e- 4
# ℹ 112 more rows
…
